<?xml version="1.0" encoding="UTF-8" standalone="no"?>
<!-- Generator: Adobe Illustrator 16.0.0, SVG Export Plug-In . SVG Version: 6.00 Build 0)  -->

<svg
   xmlns:dc="http://purl.org/dc/elements/1.1/"
   xmlns:cc="http://creativecommons.org/ns#"
   xmlns:rdf="http://www.w3.org/1999/02/22-rdf-syntax-ns#"
   xmlns:svg="http://www.w3.org/2000/svg"
   xmlns="http://www.w3.org/2000/svg"
   xmlns:sodipodi="http://sodipodi.sourceforge.net/DTD/sodipodi-0.dtd"
   xmlns:inkscape="http://www.inkscape.org/namespaces/inkscape"
   version="1.1"
   id="Capa_1"
   x="0px"
   y="0px"
   width="64"
   height="64"
   viewBox="0 0 64 64"
   xml:space="preserve"
   inkscape:version="0.91 r13725"
   sodipodi:docname="done.svg"><metadata
     id="metadata42"><rdf:RDF><cc:Work
         rdf:about=""><dc:format>image/svg+xml</dc:format><dc:type
           rdf:resource="http://purl.org/dc/dcmitype/StillImage" /><dc:title></dc:title></cc:Work></rdf:RDF></metadata><defs
     id="defs40" /><sodipodi:namedview
     pagecolor="#ffffff"
     bordercolor="#666666"
     borderopacity="1"
     objecttolerance="10"
     gridtolerance="10"
     guidetolerance="10"
     inkscape:pageopacity="0"
     inkscape:pageshadow="2"
     inkscape:window-width="1121"
     inkscape:window-height="813"
     id="namedview38"
     showgrid="false"
     inkscape:zoom="5.2353631"
     inkscape:cx="15.685907"
     inkscape:cy="33.736061"
     inkscape:window-x="0"
     inkscape:window-y="32"
     inkscape:window-maximized="0"
     inkscape:current-layer="Capa_1" /><g
     id="g3"
     transform="scale(0.1254902,0.1254902)"><g
       id="check-circle-outline"><path
         d="m 150.45,206.55 -35.7,35.7 L 229.5,357 484.5,102 448.8,66.3 229.5,285.6 150.45,206.55 Z M 459,255 C 459,367.2 367.2,459 255,459 142.8,459 51,367.2 51,255 51,142.8 142.8,51 255,51 c 20.4,0 38.25,2.55 56.1,7.65 l 40.801,-40.8 C 321.3,7.65 288.15,0 255,0 114.75,0 0,114.75 0,255 0,395.25 114.75,510 255,510 395.25,510 510,395.25 510,255 l -51,0 z"
         id="path6"
         inkscape:connector-curvature="0" /></g></g><g
     id="g8"
     transform="translate(0,-446)" /><g
     id="g10"
     transform="translate(0,-446)" /><g
     id="g12"
     transform="translate(0,-446)" /><g
     id="g14"
     transform="translate(0,-446)" /><g
     id="g16"
     transform="translate(0,-446)" /><g
     id="g18"
     transform="translate(0,-446)" /><g
     id="g20"
     transform="translate(0,-446)" /><g
     id="g22"
     transform="translate(0,-446)" /><g
     id="g24"
     transform="translate(0,-446)" /><g
     id="g26"
     transform="translate(0,-446)" /><g
     id="g28"
     transform="translate(0,-446)" /><g
     id="g30"
     transform="translate(0,-446)" /><g
     id="g32"
     transform="translate(0,-446)" /><g
     id="g34"
     transform="translate(0,-446)" /><g
     id="g36"
     transform="translate(0,-446)" /></svg>