<?xml version="1.0" encoding="UTF-8" standalone="no"?>
<svg
   xmlns:dc="http://purl.org/dc/elements/1.1/"
   xmlns:cc="http://creativecommons.org/ns#"
   xmlns:rdf="http://www.w3.org/1999/02/22-rdf-syntax-ns#"
   xmlns:svg="http://www.w3.org/2000/svg"
   xmlns="http://www.w3.org/2000/svg"
   xmlns:sodipodi="http://sodipodi.sourceforge.net/DTD/sodipodi-0.dtd"
   xmlns:inkscape="http://www.inkscape.org/namespaces/inkscape"
   height="64"
   viewBox="0 0 47.999999 47.999999"
   width="64"
   version="1.1"
   id="svg10"
   sodipodi:docname="open.svg"
   inkscape:version="0.92.3 (2405546, 2018-03-11)">
  <metadata
     id="metadata16">
    <rdf:RDF>
      <cc:Work
         rdf:about="">
        <dc:format>image/svg+xml</dc:format>
        <dc:type
           rdf:resource="http://purl.org/dc/dcmitype/StillImage" />
        <dc:title></dc:title>
      </cc:Work>
    </rdf:RDF>
  </metadata>
  <defs
     id="defs14" />
  <sodipodi:namedview
     pagecolor="#ffffff"
     bordercolor="#666666"
     borderopacity="1"
     objecttolerance="10"
     gridtolerance="10"
     guidetolerance="10"
     inkscape:pageopacity="0"
     inkscape:pageshadow="2"
     inkscape:window-width="1507"
     inkscape:window-height="905"
     id="namedview12"
     showgrid="false"
     inkscape:zoom="5.6190476"
     inkscape:cx="94.532396"
     inkscape:cy="28.518902"
     inkscape:window-x="0"
     inkscape:window-y="32"
     inkscape:window-maximized="0"
     inkscape:current-layer="svg10"
     units="px" />
  <path
     d="M 46.476187,46.476195 H 1.523808 V 14.367193 h 9.632812 l 6.421131,6.422247 h 28.898436 z m 0,0"
     id="path2"
     inkscape:connector-curvature="0"
     style="fill:#4370ff;stroke-width:0.09523809" />
  <path
     d="m 46.476187,19.268607 h -8.10677 V 1.5238165 C 38.367217,0.6834145 37.686381,0.0026105 36.845608,6.4977366e-6 H 11.154388 C 10.313614,0.0026065 9.6328106,0.6834145 9.6305782,1.5238165 v 8.274181 H 12.678197 V 3.0476255 H 35.321798 V 22.316226 h 9.63058 v 22.63616 H 3.0476175 V 15.893235 h 7.4743305 l 5.980282,5.972842 c 0.288691,0.288318 0.679688,0.450149 1.087797,0.450149 H 32.274179 V 19.268607 H 18.209447 L 12.23735,13.296509 C 11.948659,13.007818 11.55729,12.845616 11.14918,12.845616 H 1.523808 c -0.84151785,0 -1.52418146762,0.682292 -1.5238094438205,1.52381 V 46.476195 C 0.00260273,47.316597 0.68340625,47.997401 1.523808,48.000005 h 44.952379 c 0.840402,-0.0026 1.521206,-0.683408 1.52381,-1.52381 V 20.792416 c 3.81e-4,-0.841889 -0.682292,-1.524181 -1.52381,-1.523809 z m 0,0"
     id="path4"
     inkscape:connector-curvature="0"
     style="stroke-width:0.09523809" />
  <path
     d="m 16.054313,6.4218805 h 15.891369 v 3.047619 H 16.054313 Z m 0,0"
     id="path6"
     inkscape:connector-curvature="0"
     style="stroke-width:0.09523809" />
  <path
     d="m 16.054313,12.843384 h 15.891369 v 3.047619 H 16.054313 Z m 0,0"
     id="path8"
     inkscape:connector-curvature="0"
     style="stroke-width:0.09523809" />
</svg>
