<?xml version="1.0" encoding="UTF-8" standalone="no"?>
<!-- Generator: Adobe Illustrator 19.0.0, SVG Export Plug-In . SVG Version: 6.00 Build 0)  -->

<svg
   xmlns:dc="http://purl.org/dc/elements/1.1/"
   xmlns:cc="http://creativecommons.org/ns#"
   xmlns:rdf="http://www.w3.org/1999/02/22-rdf-syntax-ns#"
   xmlns:svg="http://www.w3.org/2000/svg"
   xmlns="http://www.w3.org/2000/svg"
   xmlns:sodipodi="http://sodipodi.sourceforge.net/DTD/sodipodi-0.dtd"
   xmlns:inkscape="http://www.inkscape.org/namespaces/inkscape"
   version="1.1"
   id="Capa_1"
   x="0px"
   y="0px"
   viewBox="0 0 64 64"
   xml:space="preserve"
   inkscape:version="0.91 r13725"
   sodipodi:docname="outdent.svg"
   width="64"
   height="64"><metadata
     id="metadata53"><rdf:RDF><cc:Work
         rdf:about=""><dc:format>image/svg+xml</dc:format><dc:type
           rdf:resource="http://purl.org/dc/dcmitype/StillImage" /><dc:title></dc:title></cc:Work></rdf:RDF></metadata><defs
     id="defs51" /><sodipodi:namedview
     pagecolor="#ffffff"
     bordercolor="#666666"
     borderopacity="1"
     objecttolerance="10"
     gridtolerance="10"
     guidetolerance="10"
     inkscape:pageopacity="0"
     inkscape:pageshadow="2"
     inkscape:window-width="1920"
     inkscape:window-height="1025"
     id="namedview49"
     showgrid="false"
     inkscape:zoom="7.3749998"
     inkscape:cx="67.486723"
     inkscape:cy="48.470809"
     inkscape:window-x="0"
     inkscape:window-y="32"
     inkscape:window-maximized="1"
     inkscape:current-layer="Capa_1" /><g
     id="g3"
     transform="matrix(0.12499975,0,0,0.18749963,2.0689461e-6,-15.999906)"><path
       style="fill:#607d8b"
       d="m 501.333,106.667 -490.666,0 C 4.776,106.667 0,101.891 0,96 0,90.109 4.776,85.333 10.667,85.333 l 490.667,0 c 5.89,0 10.666,4.776 10.666,10.667 0,5.891 -4.776,10.667 -10.667,10.667 z"
       id="path5"
       inkscape:connector-curvature="0" /><path
       style="fill:#607d8b"
       d="m 352,170.667 -213.333,0 C 132.776,170.667 128,165.891 128,160 c 0,-5.891 4.776,-10.667 10.667,-10.667 l 213.333,0 c 5.891,0 10.667,4.776 10.667,10.667 0,5.891 -4.776,10.667 -10.667,10.667 z"
       id="path7"
       inkscape:connector-curvature="0" /><path
       style="fill:#607d8b"
       d="m 501.333,234.667 -362.666,0 C 132.776,234.667 128,229.891 128,224 c 0,-5.891 4.776,-10.667 10.667,-10.667 l 362.667,0 c 5.891,0 10.667,4.776 10.667,10.667 0,5.891 -4.777,10.667 -10.668,10.667 z"
       id="path9"
       inkscape:connector-curvature="0" /><path
       style="fill:#607d8b"
       d="m 352,298.667 -213.333,0 C 132.776,298.667 128,293.891 128,288 c 0,-5.891 4.776,-10.667 10.667,-10.667 l 213.333,0 c 5.891,0 10.667,4.776 10.667,10.667 0,5.891 -4.776,10.667 -10.667,10.667 z"
       id="path11"
       inkscape:connector-curvature="0" /><path
       style="fill:#607d8b"
       d="m 501.333,362.667 -362.666,0 C 132.776,362.667 128,357.891 128,352 c 0,-5.891 4.776,-10.667 10.667,-10.667 l 362.667,0 c 5.891,0 10.667,4.776 10.667,10.667 -10e-4,5.891 -4.777,10.667 -10.668,10.667 z"
       id="path13"
       inkscape:connector-curvature="0" /><path
       style="fill:#607d8b"
       d="m 352,426.667 -341.333,0 C 4.776,426.667 0,421.891 0,416 0,410.109 4.776,405.333 10.667,405.333 l 341.333,0 c 5.891,0 10.667,4.776 10.667,10.667 0,5.891 -4.776,10.667 -10.667,10.667 z"
       id="path15"
       inkscape:connector-curvature="0" /></g><path
     style="fill:#2196f3"
     d="M 0.39170654,28.583944 11.058311,12.584038 c 0.519999,-0.782061 1.364247,-0.783561 1.885621,-0.0036 0.251375,0.376125 0.392374,0.887061 0.391749,1.41956 l 0,32 c -1.25e-4,0.809249 -0.325374,1.53881 -0.823998,1.847997 -0.161375,0.100874 -0.334499,0.152437 -0.509374,0.152062 -0.353874,9.37e-4 -0.693499,-0.209062 -0.943998,-0.584062 L 0.39170654,31.416126 c -0.521374,-0.779998 -0.522374,-2.046371 -0.0024,-2.828432 7.5e-4,-0.0013 0.0016,-0.0024 0.0024,-0.0038 z"
     id="path17"
     inkscape:connector-curvature="0" /><g
     id="g19"
     transform="translate(0,-448)" /><g
     id="g21"
     transform="translate(0,-448)" /><g
     id="g23"
     transform="translate(0,-448)" /><g
     id="g25"
     transform="translate(0,-448)" /><g
     id="g27"
     transform="translate(0,-448)" /><g
     id="g29"
     transform="translate(0,-448)" /><g
     id="g31"
     transform="translate(0,-448)" /><g
     id="g33"
     transform="translate(0,-448)" /><g
     id="g35"
     transform="translate(0,-448)" /><g
     id="g37"
     transform="translate(0,-448)" /><g
     id="g39"
     transform="translate(0,-448)" /><g
     id="g41"
     transform="translate(0,-448)" /><g
     id="g43"
     transform="translate(0,-448)" /><g
     id="g45"
     transform="translate(0,-448)" /><g
     id="g47"
     transform="translate(0,-448)" /></svg>